%YAML 1.1
%TAG !u! tag:unity3d.com,2011:
--- !u!1 &6481712102582927554
GameObject:
  m_ObjectHideFlags: 0
  m_CorrespondingSourceObject: {fileID: 0}
  m_PrefabInstance: {fileID: 0}
  m_PrefabAsset: {fileID: 0}
  serializedVersion: 6
  m_Component:
  - component: {fileID: 6481712102582639842}
  - component: {fileID: 6481712102586031298}
  - component: {fileID: 6481712102584933890}
  - component: {fileID: 1973203973674512085}
  m_Layer: 0
  m_Name: M4 ammo(do not use)
  m_TagString: PickUps
  m_Icon: {fileID: 0}
  m_NavMeshLayer: 0
  m_StaticEditorFlags: 0
  m_IsActive: 1
--- !u!4 &6481712102582639842
Transform:
  m_ObjectHideFlags: 0
  m_CorrespondingSourceObject: {fileID: 0}
  m_PrefabInstance: {fileID: 0}
  m_PrefabAsset: {fileID: 0}
  m_GameObject: {fileID: 6481712102582927554}
  m_LocalRotation: {x: 0, y: 0, z: 0, w: 1}
  m_LocalPosition: {x: 0, y: 0, z: 0}
  m_LocalScale: {x: 1, y: 1, z: 1}
  m_Children:
  - {fileID: 6247276674299301529}
  - {fileID: 8890264341253014535}
  - {fileID: 5417788882302498951}
  - {fileID: 148163315827089551}
  - {fileID: 6734780298028071651}
  - {fileID: 77319837549190011}
  - {fileID: 4322595917625945054}
  - {fileID: 976428765217008757}
  - {fileID: 7470198462563364265}
  - {fileID: 8089063309985765941}
  m_Father: {fileID: 0}
  m_RootOrder: 0
  m_LocalEulerAnglesHint: {x: 0, y: 0, z: 0}
--- !u!33 &6481712102586031298
MeshFilter:
  m_ObjectHideFlags: 0
  m_CorrespondingSourceObject: {fileID: 0}
  m_PrefabInstance: {fileID: 0}
  m_PrefabAsset: {fileID: 0}
  m_GameObject: {fileID: 6481712102582927554}
  m_Mesh: {fileID: 4300000, guid: 8c6f1711cf49f654cb671321e418b824, type: 3}
--- !u!23 &6481712102584933890
MeshRenderer:
  m_ObjectHideFlags: 0
  m_CorrespondingSourceObject: {fileID: 0}
  m_PrefabInstance: {fileID: 0}
  m_PrefabAsset: {fileID: 0}
  m_GameObject: {fileID: 6481712102582927554}
  m_Enabled: 1
  m_CastShadows: 1
  m_ReceiveShadows: 1
  m_DynamicOccludee: 1
  m_MotionVectors: 1
  m_LightProbeUsage: 1
  m_ReflectionProbeUsage: 1
  m_RayTracingMode: 2
  m_RayTraceProcedural: 0
  m_RenderingLayerMask: 1
  m_RendererPriority: 0
  m_Materials:
  - {fileID: 2100000, guid: 3e5ad29643174314faed7151d3cc5e20, type: 2}
  m_StaticBatchInfo:
    firstSubMesh: 0
    subMeshCount: 0
  m_StaticBatchRoot: {fileID: 0}
  m_ProbeAnchor: {fileID: 0}
  m_LightProbeVolumeOverride: {fileID: 0}
  m_ScaleInLightmap: 1
  m_ReceiveGI: 1
  m_PreserveUVs: 0
  m_IgnoreNormalsForChartDetection: 0
  m_ImportantGI: 0
  m_StitchLightmapSeams: 0
  m_SelectedEditorRenderState: 3
  m_MinimumChartSize: 4
  m_AutoUVMaxDistance: 0.5
  m_AutoUVMaxAngle: 89
  m_LightmapParameters: {fileID: 0}
  m_SortingLayerID: 0
  m_SortingLayer: 0
  m_SortingOrder: 0
  m_AdditionalVertexStreams: {fileID: 0}
--- !u!114 &1973203973674512085
MonoBehaviour:
  m_ObjectHideFlags: 0
  m_CorrespondingSourceObject: {fileID: 0}
  m_PrefabInstance: {fileID: 0}
  m_PrefabAsset: {fileID: 0}
  m_GameObject: {fileID: 6481712102582927554}
  m_Enabled: 1
  m_EditorHideFlags: 0
  m_Script: {fileID: 11500000, guid: 600b0add38b05664ba28d2f56ce1dc0b, type: 3}
  m_Name: 
  m_EditorClassIdentifier: 
  icon: {fileID: 0}
  type: gunAmmo
  increaseRate: 0
  rotation: {x: 0, y: 0, z: 0}
  position: {x: 0, y: 0, z: 0}
  scale: {x: 0, y: 0, z: 0}
  pickedUp: 0
  equipped: 0
--- !u!1001 &244165898379919934
PrefabInstance:
  m_ObjectHideFlags: 0
  serializedVersion: 2
  m_Modification:
    m_TransformParent: {fileID: 6481712102582639842}
    m_Modifications:
    - target: {fileID: 1076232074560056907, guid: 5d23b3f398f980146920f79341de431e, type: 3}
      propertyPath: m_RootOrder
      value: 7
      objectReference: {fileID: 0}
    - target: {fileID: 1076232074560056907, guid: 5d23b3f398f980146920f79341de431e, type: 3}
      propertyPath: m_LocalPosition.x
      value: 0.0295
      objectReference: {fileID: 0}
    - target: {fileID: 1076232074560056907, guid: 5d23b3f398f980146920f79341de431e, type: 3}
      propertyPath: m_LocalPosition.y
      value: 0.003
      objectReference: {fileID: 0}
    - target: {fileID: 1076232074560056907, guid: 5d23b3f398f980146920f79341de431e, type: 3}
      propertyPath: m_LocalPosition.z
      value: -0.008100002
      objectReference: {fileID: 0}
    - target: {fileID: 1076232074560056907, guid: 5d23b3f398f980146920f79341de431e, type: 3}
      propertyPath: m_LocalRotation.w
      value: 1
      objectReference: {fileID: 0}
    - target: {fileID: 1076232074560056907, guid: 5d23b3f398f980146920f79341de431e, type: 3}
      propertyPath: m_LocalRotation.x
      value: -0
      objectReference: {fileID: 0}
    - target: {fileID: 1076232074560056907, guid: 5d23b3f398f980146920f79341de431e, type: 3}
      propertyPath: m_LocalRotation.y
      value: -0
      objectReference: {fileID: 0}
    - target: {fileID: 1076232074560056907, guid: 5d23b3f398f980146920f79341de431e, type: 3}
      propertyPath: m_LocalRotation.z
      value: -0
      objectReference: {fileID: 0}
    - target: {fileID: 1076232074560056907, guid: 5d23b3f398f980146920f79341de431e, type: 3}
      propertyPath: m_LocalEulerAnglesHint.x
      value: 0
      objectReference: {fileID: 0}
    - target: {fileID: 1076232074560056907, guid: 5d23b3f398f980146920f79341de431e, type: 3}
      propertyPath: m_LocalEulerAnglesHint.y
      value: 0
      objectReference: {fileID: 0}
    - target: {fileID: 1076232074560056907, guid: 5d23b3f398f980146920f79341de431e, type: 3}
      propertyPath: m_LocalEulerAnglesHint.z
      value: 0
      objectReference: {fileID: 0}
    - target: {fileID: 1076232074560483947, guid: 5d23b3f398f980146920f79341de431e, type: 3}
      propertyPath: m_Name
      value: Ammo shotgun (17)
      objectReference: {fileID: 0}
    m_RemovedComponents: []
  m_SourcePrefab: {fileID: 100100000, guid: 5d23b3f398f980146920f79341de431e, type: 3}
--- !u!4 &976428765217008757 stripped
Transform:
  m_CorrespondingSourceObject: {fileID: 1076232074560056907, guid: 5d23b3f398f980146920f79341de431e, type: 3}
  m_PrefabInstance: {fileID: 244165898379919934}
  m_PrefabAsset: {fileID: 0}
--- !u!1001 &928280965033660100
PrefabInstance:
  m_ObjectHideFlags: 0
  serializedVersion: 2
  m_Modification:
    m_TransformParent: {fileID: 6481712102582639842}
    m_Modifications:
    - target: {fileID: 1076232074560056907, guid: 5d23b3f398f980146920f79341de431e, type: 3}
      propertyPath: m_RootOrder
      value: 3
      objectReference: {fileID: 0}
    - target: {fileID: 1076232074560056907, guid: 5d23b3f398f980146920f79341de431e, type: 3}
      propertyPath: m_LocalPosition.x
      value: 0.0717
      objectReference: {fileID: 0}
    - target: {fileID: 1076232074560056907, guid: 5d23b3f398f980146920f79341de431e, type: 3}
      propertyPath: m_LocalPosition.y
      value: 0.010600002
      objectReference: {fileID: 0}
    - target: {fileID: 1076232074560056907, guid: 5d23b3f398f980146920f79341de431e, type: 3}
      propertyPath: m_LocalPosition.z
      value: -0.0854
      objectReference: {fileID: 0}
    - target: {fileID: 1076232074560056907, guid: 5d23b3f398f980146920f79341de431e, type: 3}
      propertyPath: m_LocalRotation.w
      value: 0.63506156
      objectReference: {fileID: 0}
    - target: {fileID: 1076232074560056907, guid: 5d23b3f398f980146920f79341de431e, type: 3}
      propertyPath: m_LocalRotation.x
      value: 0.58682996
      objectReference: {fileID: 0}
    - target: {fileID: 1076232074560056907, guid: 5d23b3f398f980146920f79341de431e, type: 3}
      propertyPath: m_LocalRotation.y
      value: -0.3109638
      objectReference: {fileID: 0}
    - target: {fileID: 1076232074560056907, guid: 5d23b3f398f980146920f79341de431e, type: 3}
      propertyPath: m_LocalRotation.z
      value: 0.39449853
      objectReference: {fileID: 0}
    - target: {fileID: 1076232074560056907, guid: 5d23b3f398f980146920f79341de431e, type: 3}
      propertyPath: m_LocalEulerAnglesHint.x
      value: 82.178
      objectReference: {fileID: 0}
    - target: {fileID: 1076232074560056907, guid: 5d23b3f398f980146920f79341de431e, type: 3}
      propertyPath: m_LocalEulerAnglesHint.y
      value: 29.998001
      objectReference: {fileID: 0}
    - target: {fileID: 1076232074560056907, guid: 5d23b3f398f980146920f79341de431e, type: 3}
      propertyPath: m_LocalEulerAnglesHint.z
      value: 89.999
      objectReference: {fileID: 0}
    - target: {fileID: 1076232074560483947, guid: 5d23b3f398f980146920f79341de431e, type: 3}
      propertyPath: m_Name
      value: Ammo shotgun (13)
      objectReference: {fileID: 0}
    m_RemovedComponents: []
  m_SourcePrefab: {fileID: 100100000, guid: 5d23b3f398f980146920f79341de431e, type: 3}
--- !u!4 &148163315827089551 stripped
Transform:
  m_CorrespondingSourceObject: {fileID: 1076232074560056907, guid: 5d23b3f398f980146920f79341de431e, type: 3}
  m_PrefabInstance: {fileID: 928280965033660100}
  m_PrefabAsset: {fileID: 0}
--- !u!1001 &1152141560813286704
PrefabInstance:
  m_ObjectHideFlags: 0
  serializedVersion: 2
  m_Modification:
    m_TransformParent: {fileID: 6481712102582639842}
    m_Modifications:
    - target: {fileID: 1076232074560056907, guid: 5d23b3f398f980146920f79341de431e, type: 3}
      propertyPath: m_RootOrder
      value: 5
      objectReference: {fileID: 0}
    - target: {fileID: 1076232074560056907, guid: 5d23b3f398f980146920f79341de431e, type: 3}
      propertyPath: m_LocalPosition.x
      value: -0.0105
      objectReference: {fileID: 0}
    - target: {fileID: 1076232074560056907, guid: 5d23b3f398f980146920f79341de431e, type: 3}
      propertyPath: m_LocalPosition.y
      value: 0.003
      objectReference: {fileID: 0}
    - target: {fileID: 1076232074560056907, guid: 5d23b3f398f980146920f79341de431e, type: 3}
      propertyPath: m_LocalPosition.z
      value: -0.008100002
      objectReference: {fileID: 0}
    - target: {fileID: 1076232074560056907, guid: 5d23b3f398f980146920f79341de431e, type: 3}
      propertyPath: m_LocalRotation.w
      value: 1
      objectReference: {fileID: 0}
    - target: {fileID: 1076232074560056907, guid: 5d23b3f398f980146920f79341de431e, type: 3}
      propertyPath: m_LocalRotation.x
      value: -0
      objectReference: {fileID: 0}
    - target: {fileID: 1076232074560056907, guid: 5d23b3f398f980146920f79341de431e, type: 3}
      propertyPath: m_LocalRotation.y
      value: -0
      objectReference: {fileID: 0}
    - target: {fileID: 1076232074560056907, guid: 5d23b3f398f980146920f79341de431e, type: 3}
      propertyPath: m_LocalRotation.z
      value: -0
      objectReference: {fileID: 0}
    - target: {fileID: 1076232074560056907, guid: 5d23b3f398f980146920f79341de431e, type: 3}
      propertyPath: m_LocalEulerAnglesHint.x
      value: 0
      objectReference: {fileID: 0}
    - target: {fileID: 1076232074560056907, guid: 5d23b3f398f980146920f79341de431e, type: 3}
      propertyPath: m_LocalEulerAnglesHint.y
      value: 0
      objectReference: {fileID: 0}
    - target: {fileID: 1076232074560056907, guid: 5d23b3f398f980146920f79341de431e, type: 3}
      propertyPath: m_LocalEulerAnglesHint.z
      value: 0
      objectReference: {fileID: 0}
    - target: {fileID: 1076232074560483947, guid: 5d23b3f398f980146920f79341de431e, type: 3}
      propertyPath: m_Name
      value: Ammo shotgun (15)
      objectReference: {fileID: 0}
    m_RemovedComponents: []
  m_SourcePrefab: {fileID: 100100000, guid: 5d23b3f398f980146920f79341de431e, type: 3}
--- !u!4 &77319837549190011 stripped
Transform:
  m_CorrespondingSourceObject: {fileID: 1076232074560056907, guid: 5d23b3f398f980146920f79341de431e, type: 3}
  m_PrefabInstance: {fileID: 1152141560813286704}
  m_PrefabAsset: {fileID: 0}
--- !u!1001 &3824533873303045525
PrefabInstance:
  m_ObjectHideFlags: 0
  serializedVersion: 2
  m_Modification:
    m_TransformParent: {fileID: 6481712102582639842}
    m_Modifications:
    - target: {fileID: 1076232074560056907, guid: 5d23b3f398f980146920f79341de431e, type: 3}
      propertyPath: m_RootOrder
      value: 6
      objectReference: {fileID: 0}
    - target: {fileID: 1076232074560056907, guid: 5d23b3f398f980146920f79341de431e, type: 3}
      propertyPath: m_LocalPosition.x
      value: 0.07263578
      objectReference: {fileID: 0}
    - target: {fileID: 1076232074560056907, guid: 5d23b3f398f980146920f79341de431e, type: 3}
      propertyPath: m_LocalPosition.y
      value: 0.0029999986
      objectReference: {fileID: 0}
    - target: {fileID: 1076232074560056907, guid: 5d23b3f398f980146920f79341de431e, type: 3}
      propertyPath: m_LocalPosition.z
      value: -0.059191518
      objectReference: {fileID: 0}
    - target: {fileID: 1076232074560056907, guid: 5d23b3f398f980146920f79341de431e, type: 3}
      propertyPath: m_LocalRotation.w
      value: 0.9768779
      objectReference: {fileID: 0}
    - target: {fileID: 1076232074560056907, guid: 5d23b3f398f980146920f79341de431e, type: 3}
      propertyPath: m_LocalRotation.x
      value: -0
      objectReference: {fileID: 0}
    - target: {fileID: 1076232074560056907, guid: 5d23b3f398f980146920f79341de431e, type: 3}
      propertyPath: m_LocalRotation.y
      value: -0.21379794
      objectReference: {fileID: 0}
    - target: {fileID: 1076232074560056907, guid: 5d23b3f398f980146920f79341de431e, type: 3}
      propertyPath: m_LocalRotation.z
      value: -0
      objectReference: {fileID: 0}
    - target: {fileID: 1076232074560056907, guid: 5d23b3f398f980146920f79341de431e, type: 3}
      propertyPath: m_LocalEulerAnglesHint.x
      value: 0
      objectReference: {fileID: 0}
    - target: {fileID: 1076232074560056907, guid: 5d23b3f398f980146920f79341de431e, type: 3}
      propertyPath: m_LocalEulerAnglesHint.y
      value: -24.69
      objectReference: {fileID: 0}
    - target: {fileID: 1076232074560056907, guid: 5d23b3f398f980146920f79341de431e, type: 3}
      propertyPath: m_LocalEulerAnglesHint.z
      value: 0
      objectReference: {fileID: 0}
    - target: {fileID: 1076232074560483947, guid: 5d23b3f398f980146920f79341de431e, type: 3}
      propertyPath: m_Name
      value: Ammo shotgun (16)
      objectReference: {fileID: 0}
    m_RemovedComponents: []
  m_SourcePrefab: {fileID: 100100000, guid: 5d23b3f398f980146920f79341de431e, type: 3}
--- !u!4 &4322595917625945054 stripped
Transform:
  m_CorrespondingSourceObject: {fileID: 1076232074560056907, guid: 5d23b3f398f980146920f79341de431e, type: 3}
  m_PrefabInstance: {fileID: 3824533873303045525}
  m_PrefabAsset: {fileID: 0}
--- !u!1001 &5026106339105691340
PrefabInstance:
  m_ObjectHideFlags: 0
  serializedVersion: 2
  m_Modification:
    m_TransformParent: {fileID: 6481712102582639842}
    m_Modifications:
    - target: {fileID: 1076232074560056907, guid: 5d23b3f398f980146920f79341de431e, type: 3}
      propertyPath: m_RootOrder
      value: 2
      objectReference: {fileID: 0}
    - target: {fileID: 1076232074560056907, guid: 5d23b3f398f980146920f79341de431e, type: 3}
      propertyPath: m_LocalPosition.x
      value: -0.0233
      objectReference: {fileID: 0}
    - target: {fileID: 1076232074560056907, guid: 5d23b3f398f980146920f79341de431e, type: 3}
      propertyPath: m_LocalPosition.y
      value: 0.003
      objectReference: {fileID: 0}
    - target: {fileID: 1076232074560056907, guid: 5d23b3f398f980146920f79341de431e, type: 3}
      propertyPath: m_LocalPosition.z
      value: 0.014600002
      objectReference: {fileID: 0}
    - target: {fileID: 1076232074560056907, guid: 5d23b3f398f980146920f79341de431e, type: 3}
      propertyPath: m_LocalRotation.w
      value: 1
      objectReference: {fileID: 0}
    - target: {fileID: 1076232074560056907, guid: 5d23b3f398f980146920f79341de431e, type: 3}
      propertyPath: m_LocalRotation.x
      value: -0
      objectReference: {fileID: 0}
    - target: {fileID: 1076232074560056907, guid: 5d23b3f398f980146920f79341de431e, type: 3}
      propertyPath: m_LocalRotation.y
      value: -0
      objectReference: {fileID: 0}
    - target: {fileID: 1076232074560056907, guid: 5d23b3f398f980146920f79341de431e, type: 3}
      propertyPath: m_LocalRotation.z
      value: -0
      objectReference: {fileID: 0}
    - target: {fileID: 1076232074560056907, guid: 5d23b3f398f980146920f79341de431e, type: 3}
      propertyPath: m_LocalEulerAnglesHint.x
      value: 0
      objectReference: {fileID: 0}
    - target: {fileID: 1076232074560056907, guid: 5d23b3f398f980146920f79341de431e, type: 3}
      propertyPath: m_LocalEulerAnglesHint.y
      value: 0
      objectReference: {fileID: 0}
    - target: {fileID: 1076232074560056907, guid: 5d23b3f398f980146920f79341de431e, type: 3}
      propertyPath: m_LocalEulerAnglesHint.z
      value: 0
      objectReference: {fileID: 0}
    - target: {fileID: 1076232074560483947, guid: 5d23b3f398f980146920f79341de431e, type: 3}
      propertyPath: m_Name
      value: Ammo shotgun (12)
      objectReference: {fileID: 0}
    m_RemovedComponents: []
  m_SourcePrefab: {fileID: 100100000, guid: 5d23b3f398f980146920f79341de431e, type: 3}
--- !u!4 &5417788882302498951 stripped
Transform:
  m_CorrespondingSourceObject: {fileID: 1076232074560056907, guid: 5d23b3f398f980146920f79341de431e, type: 3}
  m_PrefabInstance: {fileID: 5026106339105691340}
  m_PrefabAsset: {fileID: 0}
--- !u!1001 &6023904942397035688
PrefabInstance:
  m_ObjectHideFlags: 0
  serializedVersion: 2
  m_Modification:
    m_TransformParent: {fileID: 6481712102582639842}
    m_Modifications:
    - target: {fileID: 1076232074560056907, guid: 5d23b3f398f980146920f79341de431e, type: 3}
      propertyPath: m_RootOrder
      value: 4
      objectReference: {fileID: 0}
    - target: {fileID: 1076232074560056907, guid: 5d23b3f398f980146920f79341de431e, type: 3}
      propertyPath: m_LocalPosition.x
      value: 0.0081
      objectReference: {fileID: 0}
    - target: {fileID: 1076232074560056907, guid: 5d23b3f398f980146920f79341de431e, type: 3}
      propertyPath: m_LocalPosition.y
      value: 0.003
      objectReference: {fileID: 0}
    - target: {fileID: 1076232074560056907, guid: 5d23b3f398f980146920f79341de431e, type: 3}
      propertyPath: m_LocalPosition.z
      value: 0.0101
      objectReference: {fileID: 0}
    - target: {fileID: 1076232074560056907, guid: 5d23b3f398f980146920f79341de431e, type: 3}
      propertyPath: m_LocalRotation.w
      value: 1
      objectReference: {fileID: 0}
    - target: {fileID: 1076232074560056907, guid: 5d23b3f398f980146920f79341de431e, type: 3}
      propertyPath: m_LocalRotation.x
      value: -0
      objectReference: {fileID: 0}
    - target: {fileID: 1076232074560056907, guid: 5d23b3f398f980146920f79341de431e, type: 3}
      propertyPath: m_LocalRotation.y
      value: -0
      objectReference: {fileID: 0}
    - target: {fileID: 1076232074560056907, guid: 5d23b3f398f980146920f79341de431e, type: 3}
      propertyPath: m_LocalRotation.z
      value: -0
      objectReference: {fileID: 0}
    - target: {fileID: 1076232074560056907, guid: 5d23b3f398f980146920f79341de431e, type: 3}
      propertyPath: m_LocalEulerAnglesHint.x
      value: 0
      objectReference: {fileID: 0}
    - target: {fileID: 1076232074560056907, guid: 5d23b3f398f980146920f79341de431e, type: 3}
      propertyPath: m_LocalEulerAnglesHint.y
      value: 0
      objectReference: {fileID: 0}
    - target: {fileID: 1076232074560056907, guid: 5d23b3f398f980146920f79341de431e, type: 3}
      propertyPath: m_LocalEulerAnglesHint.z
      value: 0
      objectReference: {fileID: 0}
    - target: {fileID: 1076232074560483947, guid: 5d23b3f398f980146920f79341de431e, type: 3}
      propertyPath: m_Name
      value: Ammo shotgun (14)
      objectReference: {fileID: 0}
    m_RemovedComponents: []
  m_SourcePrefab: {fileID: 100100000, guid: 5d23b3f398f980146920f79341de431e, type: 3}
--- !u!4 &6734780298028071651 stripped
Transform:
  m_CorrespondingSourceObject: {fileID: 1076232074560056907, guid: 5d23b3f398f980146920f79341de431e, type: 3}
  m_PrefabInstance: {fileID: 6023904942397035688}
  m_PrefabAsset: {fileID: 0}
--- !u!1001 &6367318391970668754
PrefabInstance:
  m_ObjectHideFlags: 0
  serializedVersion: 2
  m_Modification:
    m_TransformParent: {fileID: 6481712102582639842}
    m_Modifications:
    - target: {fileID: 1076232074560056907, guid: 5d23b3f398f980146920f79341de431e, type: 3}
      propertyPath: m_RootOrder
      value: 0
      objectReference: {fileID: 0}
    - target: {fileID: 1076232074560056907, guid: 5d23b3f398f980146920f79341de431e, type: 3}
      propertyPath: m_LocalPosition.x
      value: -0.045900002
      objectReference: {fileID: 0}
    - target: {fileID: 1076232074560056907, guid: 5d23b3f398f980146920f79341de431e, type: 3}
      propertyPath: m_LocalPosition.y
      value: 0.003
      objectReference: {fileID: 0}
    - target: {fileID: 1076232074560056907, guid: 5d23b3f398f980146920f79341de431e, type: 3}
      propertyPath: m_LocalPosition.z
      value: 0.014600002
      objectReference: {fileID: 0}
    - target: {fileID: 1076232074560056907, guid: 5d23b3f398f980146920f79341de431e, type: 3}
      propertyPath: m_LocalRotation.w
      value: 1
      objectReference: {fileID: 0}
    - target: {fileID: 1076232074560056907, guid: 5d23b3f398f980146920f79341de431e, type: 3}
      propertyPath: m_LocalRotation.x
      value: -0
      objectReference: {fileID: 0}
    - target: {fileID: 1076232074560056907, guid: 5d23b3f398f980146920f79341de431e, type: 3}
      propertyPath: m_LocalRotation.y
      value: -0
      objectReference: {fileID: 0}
    - target: {fileID: 1076232074560056907, guid: 5d23b3f398f980146920f79341de431e, type: 3}
      propertyPath: m_LocalRotation.z
      value: -0
      objectReference: {fileID: 0}
    - target: {fileID: 1076232074560056907, guid: 5d23b3f398f980146920f79341de431e, type: 3}
      propertyPath: m_LocalEulerAnglesHint.x
      value: 0
      objectReference: {fileID: 0}
    - target: {fileID: 1076232074560056907, guid: 5d23b3f398f980146920f79341de431e, type: 3}
      propertyPath: m_LocalEulerAnglesHint.y
      value: 0
      objectReference: {fileID: 0}
    - target: {fileID: 1076232074560056907, guid: 5d23b3f398f980146920f79341de431e, type: 3}
      propertyPath: m_LocalEulerAnglesHint.z
      value: 0
      objectReference: {fileID: 0}
    - target: {fileID: 1076232074560483947, guid: 5d23b3f398f980146920f79341de431e, type: 3}
      propertyPath: m_Name
      value: Ammo shotgun (10)
      objectReference: {fileID: 0}
    m_RemovedComponents: []
  m_SourcePrefab: {fileID: 100100000, guid: 5d23b3f398f980146920f79341de431e, type: 3}
--- !u!4 &6247276674299301529 stripped
Transform:
  m_CorrespondingSourceObject: {fileID: 1076232074560056907, guid: 5d23b3f398f980146920f79341de431e, type: 3}
  m_PrefabInstance: {fileID: 6367318391970668754}
  m_PrefabAsset: {fileID: 0}
--- !u!1001 &7585454522588890082
PrefabInstance:
  m_ObjectHideFlags: 0
  serializedVersion: 2
  m_Modification:
    m_TransformParent: {fileID: 6481712102582639842}
    m_Modifications:
    - target: {fileID: 1076232074560056907, guid: 5d23b3f398f980146920f79341de431e, type: 3}
      propertyPath: m_RootOrder
      value: 8
      objectReference: {fileID: 0}
    - target: {fileID: 1076232074560056907, guid: 5d23b3f398f980146920f79341de431e, type: 3}
      propertyPath: m_LocalPosition.x
      value: 0.046
      objectReference: {fileID: 0}
    - target: {fileID: 1076232074560056907, guid: 5d23b3f398f980146920f79341de431e, type: 3}
      propertyPath: m_LocalPosition.y
      value: 0.003
      objectReference: {fileID: 0}
    - target: {fileID: 1076232074560056907, guid: 5d23b3f398f980146920f79341de431e, type: 3}
      propertyPath: m_LocalPosition.z
      value: 0.014600002
      objectReference: {fileID: 0}
    - target: {fileID: 1076232074560056907, guid: 5d23b3f398f980146920f79341de431e, type: 3}
      propertyPath: m_LocalRotation.w
      value: 1
      objectReference: {fileID: 0}
    - target: {fileID: 1076232074560056907, guid: 5d23b3f398f980146920f79341de431e, type: 3}
      propertyPath: m_LocalRotation.x
      value: -0
      objectReference: {fileID: 0}
    - target: {fileID: 1076232074560056907, guid: 5d23b3f398f980146920f79341de431e, type: 3}
      propertyPath: m_LocalRotation.y
      value: -0
      objectReference: {fileID: 0}
    - target: {fileID: 1076232074560056907, guid: 5d23b3f398f980146920f79341de431e, type: 3}
      propertyPath: m_LocalRotation.z
      value: -0
      objectReference: {fileID: 0}
    - target: {fileID: 1076232074560056907, guid: 5d23b3f398f980146920f79341de431e, type: 3}
      propertyPath: m_LocalEulerAnglesHint.x
      value: 0
      objectReference: {fileID: 0}
    - target: {fileID: 1076232074560056907, guid: 5d23b3f398f980146920f79341de431e, type: 3}
      propertyPath: m_LocalEulerAnglesHint.y
      value: 0
      objectReference: {fileID: 0}
    - target: {fileID: 1076232074560056907, guid: 5d23b3f398f980146920f79341de431e, type: 3}
      propertyPath: m_LocalEulerAnglesHint.z
      value: 0
      objectReference: {fileID: 0}
    - target: {fileID: 1076232074560483947, guid: 5d23b3f398f980146920f79341de431e, type: 3}
      propertyPath: m_Name
      value: Ammo shotgun (18)
      objectReference: {fileID: 0}
    m_RemovedComponents: []
  m_SourcePrefab: {fileID: 100100000, guid: 5d23b3f398f980146920f79341de431e, type: 3}
--- !u!4 &7470198462563364265 stripped
Transform:
  m_CorrespondingSourceObject: {fileID: 1076232074560056907, guid: 5d23b3f398f980146920f79341de431e, type: 3}
  m_PrefabInstance: {fileID: 7585454522588890082}
  m_PrefabAsset: {fileID: 0}
--- !u!1001 &8471019173059619404
PrefabInstance:
  m_ObjectHideFlags: 0
  serializedVersion: 2
  m_Modification:
    m_TransformParent: {fileID: 6481712102582639842}
    m_Modifications:
    - target: {fileID: 1076232074560056907, guid: 5d23b3f398f980146920f79341de431e, type: 3}
      propertyPath: m_RootOrder
      value: 1
      objectReference: {fileID: 0}
    - target: {fileID: 1076232074560056907, guid: 5d23b3f398f980146920f79341de431e, type: 3}
      propertyPath: m_LocalPosition.x
      value: -0.045900002
      objectReference: {fileID: 0}
    - target: {fileID: 1076232074560056907, guid: 5d23b3f398f980146920f79341de431e, type: 3}
      propertyPath: m_LocalPosition.y
      value: 0.003
      objectReference: {fileID: 0}
    - target: {fileID: 1076232074560056907, guid: 5d23b3f398f980146920f79341de431e, type: 3}
      propertyPath: m_LocalPosition.z
      value: -0.008100002
      objectReference: {fileID: 0}
    - target: {fileID: 1076232074560056907, guid: 5d23b3f398f980146920f79341de431e, type: 3}
      propertyPath: m_LocalRotation.w
      value: 1
      objectReference: {fileID: 0}
    - target: {fileID: 1076232074560056907, guid: 5d23b3f398f980146920f79341de431e, type: 3}
      propertyPath: m_LocalRotation.x
      value: -0
      objectReference: {fileID: 0}
    - target: {fileID: 1076232074560056907, guid: 5d23b3f398f980146920f79341de431e, type: 3}
      propertyPath: m_LocalRotation.y
      value: -0
      objectReference: {fileID: 0}
    - target: {fileID: 1076232074560056907, guid: 5d23b3f398f980146920f79341de431e, type: 3}
      propertyPath: m_LocalRotation.z
      value: -0
      objectReference: {fileID: 0}
    - target: {fileID: 1076232074560056907, guid: 5d23b3f398f980146920f79341de431e, type: 3}
      propertyPath: m_LocalEulerAnglesHint.x
      value: 0
      objectReference: {fileID: 0}
    - target: {fileID: 1076232074560056907, guid: 5d23b3f398f980146920f79341de431e, type: 3}
      propertyPath: m_LocalEulerAnglesHint.y
      value: 0
      objectReference: {fileID: 0}
    - target: {fileID: 1076232074560056907, guid: 5d23b3f398f980146920f79341de431e, type: 3}
      propertyPath: m_LocalEulerAnglesHint.z
      value: 0
      objectReference: {fileID: 0}
    - target: {fileID: 1076232074560483947, guid: 5d23b3f398f980146920f79341de431e, type: 3}
      propertyPath: m_Name
      value: Ammo shotgun (11)
      objectReference: {fileID: 0}
    m_RemovedComponents: []
  m_SourcePrefab: {fileID: 100100000, guid: 5d23b3f398f980146920f79341de431e, type: 3}
--- !u!4 &8890264341253014535 stripped
Transform:
  m_CorrespondingSourceObject: {fileID: 1076232074560056907, guid: 5d23b3f398f980146920f79341de431e, type: 3}
  m_PrefabInstance: {fileID: 8471019173059619404}
  m_PrefabAsset: {fileID: 0}
--- !u!1001 &9128140481326249086
PrefabInstance:
  m_ObjectHideFlags: 0
  serializedVersion: 2
  m_Modification:
    m_TransformParent: {fileID: 6481712102582639842}
    m_Modifications:
    - target: {fileID: 1076232074560056907, guid: 5d23b3f398f980146920f79341de431e, type: 3}
      propertyPath: m_RootOrder
      value: 9
      objectReference: {fileID: 0}
    - target: {fileID: 1076232074560056907, guid: 5d23b3f398f980146920f79341de431e, type: 3}
      propertyPath: m_LocalPosition.x
      value: 0.057035774
      objectReference: {fileID: 0}
    - target: {fileID: 1076232074560056907, guid: 5d23b3f398f980146920f79341de431e, type: 3}
      propertyPath: m_LocalPosition.y
      value: 0.0029999986
      objectReference: {fileID: 0}
    - target: {fileID: 1076232074560056907, guid: 5d23b3f398f980146920f79341de431e, type: 3}
      propertyPath: m_LocalPosition.z
      value: -0.03819152
      objectReference: {fileID: 0}
    - target: {fileID: 1076232074560056907, guid: 5d23b3f398f980146920f79341de431e, type: 3}
      propertyPath: m_LocalRotation.w
      value: 0.9983456
      objectReference: {fileID: 0}
    - target: {fileID: 1076232074560056907, guid: 5d23b3f398f980146920f79341de431e, type: 3}
      propertyPath: m_LocalRotation.x
      value: -0
      objectReference: {fileID: 0}
    - target: {fileID: 1076232074560056907, guid: 5d23b3f398f980146920f79341de431e, type: 3}
      propertyPath: m_LocalRotation.y
      value: 0.05749861
      objectReference: {fileID: 0}
    - target: {fileID: 1076232074560056907, guid: 5d23b3f398f980146920f79341de431e, type: 3}
      propertyPath: m_LocalRotation.z
      value: -0
      objectReference: {fileID: 0}
    - target: {fileID: 1076232074560056907, guid: 5d23b3f398f980146920f79341de431e, type: 3}
      propertyPath: m_LocalEulerAnglesHint.x
      value: 0
      objectReference: {fileID: 0}
    - target: {fileID: 1076232074560056907, guid: 5d23b3f398f980146920f79341de431e, type: 3}
      propertyPath: m_LocalEulerAnglesHint.y
      value: 6.5920005
      objectReference: {fileID: 0}
    - target: {fileID: 1076232074560056907, guid: 5d23b3f398f980146920f79341de431e, type: 3}
      propertyPath: m_LocalEulerAnglesHint.z
      value: 0
      objectReference: {fileID: 0}
    - target: {fileID: 1076232074560483947, guid: 5d23b3f398f980146920f79341de431e, type: 3}
      propertyPath: m_Name
      value: Ammo shotgun (19)
      objectReference: {fileID: 0}
    m_RemovedComponents: []
  m_SourcePrefab: {fileID: 100100000, guid: 5d23b3f398f980146920f79341de431e, type: 3}
--- !u!4 &8089063309985765941 stripped
Transform:
  m_CorrespondingSourceObject: {fileID: 1076232074560056907, guid: 5d23b3f398f980146920f79341de431e, type: 3}
  m_PrefabInstance: {fileID: 9128140481326249086}
  m_PrefabAsset: {fileID: 0}
